{
    "version": 2,
    "name": "KrakenD - API Gateway",
    "port": 8000,
    "endpoints": [
        {
        "endpoint": "/v1/product/{proxy+}",
        "method": "GET",
        "backend": [{
            "url_pattern": "/dev/apiv1/product/{proxy+}",
            "host": [
                "http://c54746f6-d611-4329-a738-57283e020a4a.mock.pstmn.io"
            ]
        }]
    }]
}